{
  "checks": {
    "rabbitmq_port": {
      "command": "check-ports.rb -h <rabbitmq-ip> -p 5672",
      "handler": "ospgenie",
      "interval": 10,
      "occurrences": 5,
      "notification": ":: [ ALERT ] :: - Connection refused on port 5672 (RabbitMQ)",
      "refresh": 360,
      "standalone": true
    }
  }
}
