{
  "checks": {
    "rabbitmq_aliveness": {
      "command": "check-http.rb -h <rabbitmq-ip> -p /api/aliveness-test/%2Fsensu -P 15672 -U <rabbitmq-user> -a <rabbitmq-pass>",
      "handler": "ospgenie",
      "interval": 10,
      "occurrences": 5,
      "notification": ":: [ ALERT ] :: - There's a problem with rabbitmq aliveness",
      "refresh": 360,
      "standalone": true
    }
  }
}
