{
  "checks": {
    "interfaces_metrics": {
      "type": "metric",
      "command": "/opt/sensu/embedded/bin/metrics-interface.rb -x dock,veth,lo --scheme PIXOWL.SERVERS.:::name:::.INTERFACES",
      "standalone": true,
      "interval": 60,
      "output_format": "graphite_plaintext",
      "handlers": ["graphite"]
    }
  }
}
