{
  "checks": {
    "packets_metrics": {
      "type": "metric",
      "command": "/opt/sensu/embedded/bin/metrics-net.rb -i dock,veth,lo --scheme PIXOWL.SERVERS.:::name:::.PACKETS",
      "standalone": true,
      "interval": 10,
      "output_format": "graphite_plaintext",
      "handlers": ["graphite"]
    }
  }
}
