{
  "handlers": {
    "opsgenie": {
      "type": "pipe",
      "command": "/opt/sensu/embedded/bin/handler-opsgenie.rb -j /etc/sensu/conf.d/config_opsgenie.json",
      "timeout": 10,
      "severities": ["critical", "unknown"],
      "filters": [ "recurrences" ]
    }
  }
}

